Transformando Dados - Workshop P4H
…
Uruguai
2011
2.4

Como deixar os dados tidy com o tidyr.

banco <- read_csv('../data/w2/w2_01_use.csv')

gather

gather(banco, c("2012", "2013", "2014", "2015", "2016"), key = "year", value = "institutions") %>% drop_na(institutions)

## # A tibble: 290 x 21
##    course_number launch_month launch_day course_title instructors
##    <chr>                <int>      <int> <chr>        <chr>      
##  1 6.002x                   9          5 Circuits an… Khurram Af…
##  2 6.00x                    9         26 Introductio… Eric Grims…
##  3 3.091x                  10          9 Introductio… Michael Ci…
##  4 CS50x                   10         15 Introductio… David Mala…
##  5 PH207x                  10         15 Health in N… Earl Franc…
##  6 6.00x                    2          4 Introductio… Larry Rudo…
##  7 3.091x                   2          5 Introductio… Michael Ci…
##  8 14.73x                   2         12 The Challen… Esther Duf…
##  9 8.02x                    2         18 Electricity… Walter Lew…
## 10 ER22x                    3          2 Justice      Michael Sa…
## # ... with 280 more rows, and 16 more variables: course_subject <chr>,
## #   honor_code_certificates <int>, participants <int>, audited <int>,
## #   certified <int>, percent_played_video <dbl>,
## #   percent_posted_forum <dbl>, percent_grade_higher_than_zero <dbl>,
## #   total_course_hours_per_1000 <dbl>,
## #   median_hours_for_certification <dbl>, median_age <dbl>,
## #   percent_male <dbl>, percent_female <dbl>,
## #   percent_bachelor_degree_or_higher <dbl>, year <chr>,
## #   institutions <chr>
…
